%YAML 1.1
%TAG !u! tag:unity3d.com,2011:
--- !u!1045 &1
EditorBuildSettings:
  m_ObjectHideFlags: 0
  serializedVersion: 2
  m_Scenes:
  - enabled: 1
    path: Assets/Scenes/Menu.unity
    guid: 3baef8ba25a0d8749acde6b8733bd9b6
  - enabled: 1
    path: Assets/Scenes/Bracket.unity
    guid: 8760d82f85955ea4bbc26b48ede02690
  - enabled: 1
    path: Assets/Scenes/Main.unity
    guid: 8580a2b2e79388b4994322fbca1def9b
  - enabled: 1
    path: Assets/Scenes/Table.unity
    guid: eafc7593c5e10944db23f7a25b52d62d
  - enabled: 1
    path: Assets/Scenes/Results.unity
    guid: d0e7ac76d0a1748428a0394aceb1b35c
  - enabled: 1
    path: Assets/Scenes/Championship.unity
    guid: b6fd266a483a971409c9751b23171934
  m_configObjects: {}
